{
    "0": {
        "label": "unknown",
        "label_cn": "不明設備",
        "color": "#000000"
    },
    "1": {
        "label": "cable",
        "label_cn": "ケーブル",
        "color": "#ff0000"
    },
    "2": {
        "label": "clock",
        "label_cn": "時計",
        "color": "#6496f5"
    },
    "3": {
        "label": "ITV",
        "label_cn": "ITV",
        "color": "#64e6f5"
    },
    "4": {
        "label": "box",
        "label_cn": "接続箱",
        "color": "#1e3c96"
    }
}
