attrs==24.2.0
backcall==0.2.0
certifi==2024.12.14
charset-normalizer==3.4.1
click==8.1.8
colorama==0.4.6
comm==0.1.4
ConfigArgParse==1.7
dash==2.15.0
dash-core-components==2.0.0
dash-html-components==2.0.0
dash-table==5.0.0
decorator==5.1.1
fastjsonschema==2.21.1
Flask==2.2.5
future==0.18.2
idna==3.10
importlib-metadata==6.7.0
importlib-resources==5.12.0
ipython==7.34.0
ipywidgets==8.1.5
itsdangerous==2.1.2
jedi==0.19.2
Jinja2==3.1.5
jsonschema==4.17.3
jupyter_core==4.12.0
jupyterlab_widgets==3.0.13
laspy==1.5.0
MarkupSafe==2.1.5
matplotlib-inline==0.1.6
nbformat==5.7.0
nest-asyncio==1.6.0
numpy==1.21.6
open3d==0.17.0
packaging==24.0
parso==0.8.4
pickleshare==0.7.5
Pillow==7.1.1
pkgutil_resolve_name==1.3.10
plotly==5.18.0
pptk @ file:///C:/Users/kogu1/Downloads/pptk-0.1.0-cp37-none-win_amd64.whl#sha256=43a9a4701ae456533c2182e9b835a303537a41b1a91a804082828a0982ee31aa
prompt_toolkit==3.0.48
Pygments==2.17.2
PyOpenGL==3.1.7
PyOpenGL-accelerate==3.1.7
PyQt5==5.15.10
PyQt5-Qt5==5.15.2
PyQt5-sip==12.13.0
pyrsistent==0.19.3
pywin32==306
requests==2.31.0
retrying==1.3.4
scipy==1.7.3
six==1.17.0
tenacity==8.2.3
torch==1.5.0+cpu
torchvision==0.6.0+cpu
traitlets==5.9.0
typing_extensions==4.7.1
unzip==1.0.0
urllib3==2.0.7
wcwidth==0.2.13
Werkzeug==2.2.3
widgetsnbextension==4.0.13
zipp==3.15.0
